<?xml version="1.0" encoding="utf-8"?>
<!-- Generator: Adobe Illustrator 19.0.0, SVG Export Plug-In . SVG Version: 6.00 Build 0)  -->
<svg version="1.1" id="Camada_1" xmlns="http://www.w3.org/2000/svg" xmlns:xlink="http://www.w3.org/1999/xlink" x="0px" y="0px"
	 viewBox="-114 356.2 381.8 81.8" style="enable-background:new -114 356.2 381.8 81.8;" xml:space="preserve">
<style type="text/css">
	.st0{fill:#E1AF42;}
</style>
<polygon id="XMLID_114_" class="st0" points="268.8,356.2 -113,356.2 -113,393.8 144.6,393.8 194.2,438 243.7,393.8 268.8,393.8 "/>
</svg>
